CAHomework4/b05504066_hw4/codes/Hw4.vcd
$date
	Wed May 05 01:07:36 2021
$end
$version
	Icarus Verilog
$end
$timescale
	1s
$end
$scope module TestBench $end
$var reg 1 ! Clk $end
$var reg 1 " Reset $end
$var reg 1 # Start $end
$var integer 32 $ counter [31:0] $end
$var integer 32 % i [31:0] $end
$var integer 32 & outfile [31:0] $end
$scope module CPU $end
$var wire 1 ! clk_i $end
$var wire 1 " rst_i $end
$var wire 1 # start_i $end
$scope module ALU $end
$var wire 1 ' Zero_o $end
$var wire 32 ( data2_i [31:0] $end
$var wire 32 ) data1_i [31:0] $end
$var wire 3 * ALUCtrl_i [2:0] $end
$var reg 32 + data_o [31:0] $end
$upscope $end
$scope module ALU_Control $end
$var wire 10 , funct_i [9:0] $end
$var wire 2 - ALUOp_i [1:0] $end
$var reg 3 . ALUCtrl_o [2:0] $end
$upscope $end
$scope module Add_PC $end
$var wire 32 / data2_in [31:0] $end
$var wire 32 0 data_o [31:0] $end
$var wire 32 1 data1_in [31:0] $end
$upscope $end
$scope module Control $end
$var wire 7 2 Op_i [6:0] $end
$var reg 2 3 ALUOp_o [1:0] $end
$var reg 1 4 ALUSrc_o $end
$var reg 1 5 RegWrite_o $end
$upscope $end
$scope module Instruction_Memory $end
$var wire 32 6 instr_o [31:0] $end
$var wire 32 7 addr_i [31:0] $end
$upscope $end
$scope module MUX_ALUSrc $end
$var wire 1 4 select_i $end
$var wire 32 8 data2_i [31:0] $end
$var wire 32 9 data1_i [31:0] $end
$var reg 32 : data_o [31:0] $end
$upscope $end
$scope module PC $end
$var wire 1 ! clk_i $end
$var wire 32 ; pc_i [31:0] $end
$var wire 1 " rst_i $end
$var wire 1 # start_i $end
$var reg 32 < pc_o [31:0] $end
$upscope $end
$scope module Registers $end
$var wire 5 = RDaddr_i [4:0] $end
$var wire 32 > RDdata_i [31:0] $end
$var wire 5 ? RS1addr_i [4:0] $end
$var wire 32 @ RS1data_o [31:0] $end
$var wire 5 A RS2addr_i [4:0] $end
$var wire 32 B RS2data_o [31:0] $end
$var wire 1 5 RegWrite_i $end
$var wire 1 ! clk_i $end
$upscope $end
$scope module Sign_Extend $end
$var wire 12 C data_i [31:20] $end
$var reg 32 D data_o [31:0] $end
$upscope $end
$upscope $end
$upscope $end
$enddefinitions $end
#0
$dumpvars
b1010 D
b1010 C
b0 B
b1010 A
b0 @
b0 ?
b1010 >
b101 =
b0 <
b100 ;
b1010 :
b0 9
b1010 8
b0 7
b101000000000001010010011 6
15
14
b0 3
b10011 2
b0 1
b100 0
b100 /
b100 .
b0 -
b0 ,
b1010 +
b100 *
b0 )
b1010 (
0'
b11 &
b100000 %
b0 $
0#
0"
0!
$end
#12
1#
1"
#25
b1101 +
b1101 >
b1101 (
b1101 :
b1101 8
b1101 D
b1101 A
b110 =
b1101 C
b110100000000001100010011 6
b1000 0
b1000 ;
b100 1
b100 7
b100 <
b1 $
1!
#50
0!
#75
b110 *
b110 .
04
b10 -
b10 3
b1101 (
b1101 :
b10000010 +
b10000010 >
b100110 8
b100110 D
b110011 2
b1010 )
b1010 @
b101 ?
b1101 9
b1101 B
b110 A
b111 =
b100110 C
b1000 ,
b10011000101000001110110011 6
b1100 0
b1100 ;
b1000 1
b1000 7
b1000 <
b10 $
1!
#100
0!
#125
b10101001 +
b10101001 >
b1101 )
b1101 @
b110 ?
b11100 =
b10011000110000111000110011 6
b10000 0
b10000 ;
b1100 1
b1100 7
b1100 <
b11 $
1!
#150
0!
#175
b100 *
b100 .
b1100 +
b1100 >
14
b0 -
b0 3
b11111111111111111111111111111111 (
b11111111111111111111111111111111 :
b11111111111111111111111111111111 8
b11111111111111111111111111111111 D
b10011 2
b0 9
b0 B
b11111 A
b110 =
b111111111111 C
b1111111000 ,
b11111111111100110000001100010011 6
b10100 0
b10100 ;
b10000 1
b10000 7
b10000 <
b100 $
1!
#200
0!
#225
b11111 (
b11111 :
b11111 8
b11111 D
b0 ?
b11110 =
b11111 C
b0 ,
b1111100000000111100010011 6
b11111 +
b11111 >
b11000 0
b11000 ;
b10100 1
b10100 7
b10100 <
b0 )
b0 @
b101 $
1!
#250
0!
#275
b1 *
b1 .
04
b10 -
b10 3
b10000010 (
b10000010 :
b0 +
b0 >
b111 8
b111 D
b110011 2
b1100 )
b1100 @
b110 ?
b10000010 9
b10000010 B
b111 A
b11100 =
b111 C
b111 ,
b11100110111111000110011 6
b11100 0
b11100 ;
b11000 1
b11000 7
b11000 <
b110 $
1!
#300
0!
#325
b10000010 +
b10000010 >
b10 *
b10 .
b0 )
b0 @
b11100 ?
b11101 =
b100 ,
b11111100100111010110011 6
b100000 0
b100000 ;
b11100 1
b11100 7
b11100 <
b111 $
1!
#350
0!
#375
b0 +
b0 >
b0 (
b0 :
b1101 8
b1101 D
b1010 ?
b0 9
b0 B
b1101 A
b1110 =
b1101 C
b110101010100011100110011 6
b100100 0
b100100 ;
b100000 1
b100000 7
b100000 <
b1000 $
1!
#400
0!
#425
b11111111111111111111111101111110 +
b11111111111111111111111101111110 >
b10000010 (
b10000010 :
b101 *
b101 .
b10000000111 8
b10000000111 D
b11100 ?
b10000010 9
b10000010 B
b111 A
b101 =
b10000000111 C
b100000000 ,
b1000000011111100000001010110011 6
b101000 0
b101000 ;
b100100 1
b100100 7
b100100 <
b1001 $
1!
#450
0!
#475
b100 *
b100 .
b11111111111111111111111111111000 +
b11111111111111111111111111111000 >
14
b0 -
b0 3
b11111111111111111111111111111000 (
b11111111111111111111111111111000 :
b11111111111111111111111111111000 8
b11111111111111111111111111111000 D
b10011 2
b11111 ?
b0 9
b0 B
b11000 A
b11111 =
b111111111000 C
b1111111000 ,
b11111111100011111000111110010011 6
b101100 0
b101100 ;
b101000 1
b101000 7
b101000 <
b1010 $
1!
#500
0!
#525
b11111111111111111111111111110000 +
b11111111111111111111111111110000 >
b110000 0
b110000 ;
b101100 1
b101100 7
b101100 <
b11111111111111111111111111111000 )
b11111111111111111111111111111000 @
b1011 $
1!
#550
0!
#575
b11111111111111111111111111101000 +
b11111111111111111111111111101000 >
b110100 0
b110100 ;
b110000 1
b110000 7
b110000 <
b11111111111111111111111111110000 )
b11111111111111111111111111110000 @
b1100 $
1!
#600
0!
#625
b111111 (
b111111 :
b111111 8
b111111 D
b0 ?
b11111111111111111111111111101000 9
b11111111111111111111111111101000 B
b11111 A
b111 =
b111111 C
b1000 ,
b11111100000000001110010011 6
b111111 +
b111111 >
b111000 0
b111000 ;
b110100 1
b110100 7
b110100 <
b0 )
b0 @
b1101 $
1!
#650
0!
#675
b10000000010 (
b10000000010 :
b111 *
b111 .
b1111 +
b1111 >
b10000000010 8
b10000000010 D
b111111 )
b111111 @
b111 ?
b0 9
b0 B
b10 A
b10000000010 C
b100000101 ,
b1000000001000111101001110010011 6
b111100 0
b111100 ;
b111000 1
b111000 7
b111000 <
b1110 $
1!
#700
0!
#725
b11 +
b11 >
b1000000 0
b1000000 ;
b111100 1
b111100 7
b111100 <
b1111 )
b1111 @
b1111 $
1!
#750
0!
#775
b0 +
b0 >
b1000100 0
b1000100 ;
b1000000 1
b1000000 7
b1000000 <
b11 )
b11 @
b10000 $
1!
#800
0!
#825
b10000000001 (
b10000000001 :
b110 +
b110 >
b10000000001 8
b10000000001 D
b110 ?
b1 A
b110 =
b10000000001 C
b1000000000100110101001100010011 6
b1001000 0
b1001000 ;
b1000100 1
b1000100 7
b1000100 <
b1100 )
b1100 @
b10001 $
1!
#850
0!
#875
b11 +
b11 >
b1001100 0
b1001100 ;
b1001000 1
b1001000 7
b1001000 <
b110 )
b110 @
b10010 $
1!
#900
0!
#925
b1 +
b1 >
b1010000 0
b1010000 ;
b1001100 1
b1001100 7
b1001100 <
b11 )
b11 @
b10011 $
1!
#950
0!
#975
b11 *
b11 .
04
b10 -
b10 3
b1 (
b1 :
b110 8
b110 D
b110011 2
b11111 ?
b1 9
b1 B
b110 A
b11111 =
b110 C
b1 ,
b11011111001111110110011 6
b11111111111111111111111111010000 +
b11111111111111111111111111010000 >
b1010100 0
b1010100 ;
b1010000 1
b1010000 7
b1010000 <
b11111111111111111111111111101000 )
b11111111111111111111111111101000 @
b10100 $
1!
#1000
0!
#1025
b11111111111111111111111110100000 +
b11111111111111111111111110100000 >
b1011000 0
b1011000 ;
b1010100 1
b1010100 7
b1010100 <
b11111111111111111111111111010000 )
b11111111111111111111111111010000 @
b10101 $
1!
#1050
0!
#1075
b0 (
b0 :
b100 *
b100 .
b0 8
b0 D
b0 2
b0 ?
b0 9
b0 B
b0 A
b0 =
b0 C
b0 ,
b0 6
b0 +
b0 >
b1011100 0
b1011100 ;
b1011000 1
b1011000 7
b1011000 <
b0 )
b0 @
b10110 $
1!
#1100
0!
#1125
b1100000 0
b1100000 ;
b1011100 1
b1011100 7
b1011100 <
b10111 $
1!
#1150
0!
#1175
b1100100 0
b1100100 ;
b1100000 1
b1100000 7
b1100000 <
b11000 $
1!
#1200
0!
#1225
b1101000 0
b1101000 ;
b1100100 1
b1100100 7
b1100100 <
b11001 $
1!
#1250
0!
#1275
b1101100 0
b1101100 ;
b1101000 1
b1101000 7
b1101000 <
b11010 $
1!
#1300
0!
#1325
b1110000 0
b1110000 ;
b1101100 1
b1101100 7
b1101100 <
b11011 $
1!
#1350
0!
#1375
b1110100 0
b1110100 ;
b1110000 1
b1110000 7
b1110000 <
b11100 $
1!
#1400
0!
#1425
b1111000 0
b1111000 ;
b1110100 1
b1110100 7
b1110100 <
b11101 $
1!
#1450
0!
#1475
b1111100 0
b1111100 ;
b1111000 1
b1111000 7
b1111000 <
b11110 $
1!
#1500
0!
#1525
b10000000 0
b10000000 ;
b1111100 1
b1111100 7
b1111100 <
1!
